<svg class="layer" width="100%" viewBox="0 0 1024 1024" version="1.1" xmlns="http://www.w3.org/2000/svg" xmlns:xlink="http://www.w3.org/1999/xlink">
    <style type="text/css" >
        <![CDATA[
            svg {
                overflow: visible !important;
            }
            a rect {
                stroke: blue;
                stroke-width: 3;
                stroke-opacity: 1;
                fill-opacity: 0.1;
            }
            rect {
                fill-opacity: 0;
            }
            rect:hover {
                fill-opacity: 0.3;
                stroke: red;
                stroke-width: 3;
                stroke-opacity: 1;
            }
            g:hover rect {
                fill-opacity: 0.3;
                stroke: red;
                stroke-width: 3;
                stroke-opacity: 1;
            }
        ]]>
    </style>
    <image width="1024" height="1024" id="layer" xlink:href="/explain/speedup.png"></image>
    <!-- add explanation texts here -->
    <rect x="0" y="0" width="64" height="64" class="tooltip" title="<strong>Empty (0)</strong><br>Empty tile, used as an eraser in the map editor."></rect>
    <rect x="768" y="64" width="64" height="64" class="tooltip" title="<strong>Speedup (28)</strong><br>Speeds up the tee in a specified direction."></rect>
    <rect x="768" y="512" width="256" height="128" class="tooltip" title="<strong>Credits (140)</strong><br>Designer of the entities."></rect>

</svg>
